66.249.76.140 - - [31/Jan/2017:01:56:54 +0100] "GET /Datenschutz HTTP/1.1" 404 1130 wechselstrom-ac.de "-" "Mozilla/5.0 (Linux; Android 6.0.1; Nexus 5X Build/MMB29P) AppleWebKit/537.36 (KHTML, like Gecko) Chrome/41.0.2272.96 Mobile Safari/537.36 (compatible; Googlebot/2.1; +http://www.google.com/bot.html)" "-"
87.79.134.136 - - [31/Jan/2017:07:52:59 +0100] "GET / HTTP/1.1" 200 43604 wechselstrom-ac.de "-" "Mozilla/5.0 (Windows NT 10.0; Win64; x64) AppleWebKit/537.36 (KHTML, like Gecko) Chrome/55.0.2883.87 Safari/537.36" "-"
87.79.134.136 - - [31/Jan/2017:07:52:59 +0100] "GET /assets/css/style.css?Tuesday%2031st%20of%20January%202017%2007:52:59%20AM HTTP/1.1" 200 10733 wechselstrom-ac.de "http://wechselstrom-ac.de/" "Mozilla/5.0 (Windows NT 10.0; Win64; x64) AppleWebKit/537.36 (KHTML, like Gecko) Chrome/55.0.2883.87 Safari/537.36" "-"
87.79.134.136 - - [31/Jan/2017:07:52:59 +0100] "GET /assets/css/font-awesome.min.css?Tuesday%2031st%20of%20January%202017%2007:52:59%20AM HTTP/1.1" 200 17803 wechselstrom-ac.de "http://wechselstrom-ac.de/" "Mozilla/5.0 (Windows NT 10.0; Win64; x64) AppleWebKit/537.36 (KHTML, like Gecko) Chrome/55.0.2883.87 Safari/537.36" "-"
87.79.134.136 - - [31/Jan/2017:07:52:59 +0100] "GET /assets/css/front-style.css?Tuesday%2031st%20of%20January%202017%2007:52:59%20AM HTTP/1.1" 200 3366 wechselstrom-ac.de "http://wechselstrom-ac.de/" "Mozilla/5.0 (Windows NT 10.0; Win64; x64) AppleWebKit/537.36 (KHTML, like Gecko) Chrome/55.0.2883.87 Safari/537.36" "-"
87.79.134.136 - - [31/Jan/2017:08:01:41 +0100] "GET /contact HTTP/1.1" 200 85886 wechselstrom-ac.de "http://wechselstrom-ac.de/" "Mozilla/5.0 (Windows NT 10.0; Win64; x64) AppleWebKit/537.36 (KHTML, like Gecko) Chrome/55.0.2883.87 Safari/537.36" "-"
87.79.134.136 - - [31/Jan/2017:08:01:41 +0100] "GET /assets/css/style.css?Tuesday%2031st%20of%20January%202017%2008:01:41%20AM HTTP/1.1" 200 10733 wechselstrom-ac.de "http://wechselstrom-ac.de/contact" "Mozilla/5.0 (Windows NT 10.0; Win64; x64) AppleWebKit/537.36 (KHTML, like Gecko) Chrome/55.0.2883.87 Safari/537.36" "-"
87.79.134.136 - - [31/Jan/2017:08:01:41 +0100] "GET /assets/css/font-awesome.min.css?Tuesday%2031st%20of%20January%202017%2008:01:41%20AM HTTP/1.1" 200 17803 wechselstrom-ac.de "http://wechselstrom-ac.de/contact" "Mozilla/5.0 (Windows NT 10.0; Win64; x64) AppleWebKit/537.36 (KHTML, like Gecko) Chrome/55.0.2883.87 Safari/537.36" "-"
87.79.134.136 - - [31/Jan/2017:08:01:41 +0100] "GET /assets/css/front-style.css?Tuesday%2031st%20of%20January%202017%2008:01:41%20AM HTTP/1.1" 200 3366 wechselstrom-ac.de "http://wechselstrom-ac.de/contact" "Mozilla/5.0 (Windows NT 10.0; Win64; x64) AppleWebKit/537.36 (KHTML, like Gecko) Chrome/55.0.2883.87 Safari/537.36" "-"
87.79.134.136 - - [31/Jan/2017:08:01:41 +0100] "GET /assets/js/iban.js HTTP/1.1" 304 - wechselstrom-ac.de "http://wechselstrom-ac.de/contact" "Mozilla/5.0 (Windows NT 10.0; Win64; x64) AppleWebKit/537.36 (KHTML, like Gecko) Chrome/55.0.2883.87 Safari/537.36" "-"
87.79.134.136 - - [31/Jan/2017:08:01:41 +0100] "GET /assets/js/iban_code.js HTTP/1.1" 304 - wechselstrom-ac.de "http://wechselstrom-ac.de/contact" "Mozilla/5.0 (Windows NT 10.0; Win64; x64) AppleWebKit/537.36 (KHTML, like Gecko) Chrome/55.0.2883.87 Safari/537.36" "-"
87.79.134.136 - - [31/Jan/2017:08:01:41 +0100] "GET /okay.png HTTP/1.1" 404 1130 wechselstrom-ac.de "http://wechselstrom-ac.de/contact" "Mozilla/5.0 (Windows NT 10.0; Win64; x64) AppleWebKit/537.36 (KHTML, like Gecko) Chrome/55.0.2883.87 Safari/537.36" "-"
87.79.134.136 - - [31/Jan/2017:08:01:41 +0100] "GET /error.png HTTP/1.1" 404 1130 wechselstrom-ac.de "http://wechselstrom-ac.de/contact" "Mozilla/5.0 (Windows NT 10.0; Win64; x64) AppleWebKit/537.36 (KHTML, like Gecko) Chrome/55.0.2883.87 Safari/537.36" "-"
87.79.134.136 - - [31/Jan/2017:08:01:42 +0100] "GET /blank.png HTTP/1.1" 404 1130 wechselstrom-ac.de "http://wechselstrom-ac.de/contact" "Mozilla/5.0 (Windows NT 10.0; Win64; x64) AppleWebKit/537.36 (KHTML, like Gecko) Chrome/55.0.2883.87 Safari/537.36" "-"
87.79.134.136 - - [31/Jan/2017:08:01:42 +0100] "GET /arrows_lr.png HTTP/1.1" 404 1130 wechselstrom-ac.de "http://wechselstrom-ac.de/contact" "Mozilla/5.0 (Windows NT 10.0; Win64; x64) AppleWebKit/537.36 (KHTML, like Gecko) Chrome/55.0.2883.87 Safari/537.36" "-"
87.79.134.136 - - [31/Jan/2017:08:01:44 +0100] "GET /ueberuns HTTP/1.1" 200 34266 wechselstrom-ac.de "http://wechselstrom-ac.de/contact" "Mozilla/5.0 (Windows NT 10.0; Win64; x64) AppleWebKit/537.36 (KHTML, like Gecko) Chrome/55.0.2883.87 Safari/537.36" "-"
87.79.134.136 - - [31/Jan/2017:08:01:44 +0100] "GET /assets/css/style.css?Tuesday%2031st%20of%20January%202017%2008:01:44%20AM HTTP/1.1" 200 10733 wechselstrom-ac.de "http://wechselstrom-ac.de/ueberuns" "Mozilla/5.0 (Windows NT 10.0; Win64; x64) AppleWebKit/537.36 (KHTML, like Gecko) Chrome/55.0.2883.87 Safari/537.36" "-"
87.79.134.136 - - [31/Jan/2017:08:01:44 +0100] "GET /assets/css/font-awesome.min.css?Tuesday%2031st%20of%20January%202017%2008:01:44%20AM HTTP/1.1" 200 17803 wechselstrom-ac.de "http://wechselstrom-ac.de/ueberuns" "Mozilla/5.0 (Windows NT 10.0; Win64; x64) AppleWebKit/537.36 (KHTML, like Gecko) Chrome/55.0.2883.87 Safari/537.36" "-"
87.79.134.136 - - [31/Jan/2017:08:01:44 +0100] "GET /assets/css/front-style.css?Tuesday%2031st%20of%20January%202017%2008:01:44%20AM HTTP/1.1" 200 3366 wechselstrom-ac.de "http://wechselstrom-ac.de/ueberuns" "Mozilla/5.0 (Windows NT 10.0; Win64; x64) AppleWebKit/537.36 (KHTML, like Gecko) Chrome/55.0.2883.87 Safari/537.36" "-"
176.198.192.54 - - [31/Jan/2017:08:45:47 +0100] "GET / HTTP/1.1" 200 43604 wechselstrom-ac.de "-" "Mozilla/5.0 (Windows NT 10.0; Win64; x64) AppleWebKit/537.36 (KHTML, like Gecko) Chrome/55.0.2883.87 Safari/537.36" "-"
176.198.192.54 - - [31/Jan/2017:08:45:47 +0100] "GET /assets/css/style.css?Tuesday%2031st%20of%20January%202017%2008:45:47%20AM HTTP/1.1" 200 10733 wechselstrom-ac.de "http://wechselstrom-ac.de/" "Mozilla/5.0 (Windows NT 10.0; Win64; x64) AppleWebKit/537.36 (KHTML, like Gecko) Chrome/55.0.2883.87 Safari/537.36" "-"
176.198.192.54 - - [31/Jan/2017:08:45:47 +0100] "GET /assets/css/font-awesome.min.css?Tuesday%2031st%20of%20January%202017%2008:45:47%20AM HTTP/1.1" 200 17803 wechselstrom-ac.de "http://wechselstrom-ac.de/" "Mozilla/5.0 (Windows NT 10.0; Win64; x64) AppleWebKit/537.36 (KHTML, like Gecko) Chrome/55.0.2883.87 Safari/537.36" "-"
176.198.192.54 - - [31/Jan/2017:08:45:47 +0100] "GET /assets/css/front-style.css?Tuesday%2031st%20of%20January%202017%2008:45:47%20AM HTTP/1.1" 200 3366 wechselstrom-ac.de "http://wechselstrom-ac.de/" "Mozilla/5.0 (Windows NT 10.0; Win64; x64) AppleWebKit/537.36 (KHTML, like Gecko) Chrome/55.0.2883.87 Safari/537.36" "-"
176.198.192.54 - - [31/Jan/2017:08:45:47 +0100] "GET /assets/js/bootstrap.min.js HTTP/1.1" 304 - wechselstrom-ac.de "http://wechselstrom-ac.de/" "Mozilla/5.0 (Windows NT 10.0; Win64; x64) AppleWebKit/537.36 (KHTML, like Gecko) Chrome/55.0.2883.87 Safari/537.36" "-"
176.198.192.54 - - [31/Jan/2017:08:45:47 +0100] "GET /assets/fonts/fontawesome-webfontba72.woff?v=4.0.3 HTTP/1.1" 304 - wechselstrom-ac.de "http://wechselstrom-ac.de/assets/css/font-awesome.min.css?Tuesday%2031st%20of%20January%202017%2008:45:47%20AM" "Mozilla/5.0 (Windows NT 10.0; Win64; x64) AppleWebKit/537.36 (KHTML, like Gecko) Chrome/55.0.2883.87 Safari/537.36" "-"
93.199.44.123 - - [31/Jan/2017:08:59:08 +0100] "GET / HTTP/1.1" 200 43604 wechselstrom-ac.de "-" "Mozilla/5.0 (Windows NT 10.0; WOW64; rv:51.0) Gecko/20100101 Firefox/51.0" "-"
93.199.44.123 - - [31/Jan/2017:08:59:08 +0100] "GET /assets/bootstrap/css/bootstrap.css HTTP/1.1" 200 141414 wechselstrom-ac.de "http://wechselstrom-ac.de/" "Mozilla/5.0 (Windows NT 10.0; WOW64; rv:51.0) Gecko/20100101 Firefox/51.0" "-"
93.199.44.123 - - [31/Jan/2017:08:59:08 +0100] "GET /assets/css/style.css?Tuesday%2031st%20of%20January%202017%2008:59:08%20AM HTTP/1.1" 200 10733 wechselstrom-ac.de "http://wechselstrom-ac.de/" "Mozilla/5.0 (Windows NT 10.0; WOW64; rv:51.0) Gecko/20100101 Firefox/51.0" "-"
93.199.44.123 - - [31/Jan/2017:08:59:08 +0100] "GET /assets/css/font-awesome.min.css?Tuesday%2031st%20of%20January%202017%2008:59:08%20AM HTTP/1.1" 200 17803 wechselstrom-ac.de "http://wechselstrom-ac.de/" "Mozilla/5.0 (Windows NT 10.0; WOW64; rv:51.0) Gecko/20100101 Firefox/51.0" "-"
93.199.44.123 - - [31/Jan/2017:08:59:08 +0100] "GET /assets/css/front-style.css?Tuesday%2031st%20of%20January%202017%2008:59:08%20AM HTTP/1.1" 200 3366 wechselstrom-ac.de "http://wechselstrom-ac.de/" "Mozilla/5.0 (Windows NT 10.0; WOW64; rv:51.0) Gecko/20100101 Firefox/51.0" "-"
93.199.44.123 - - [31/Jan/2017:08:59:08 +0100] "GET /assets/js/bootstrap.min.js HTTP/1.1" 200 29115 wechselstrom-ac.de "http://wechselstrom-ac.de/" "Mozilla/5.0 (Windows NT 10.0; WOW64; rv:51.0) Gecko/20100101 Firefox/51.0" "-"
93.199.44.123 - - [31/Jan/2017:08:59:08 +0100] "GET /assets/images/fav.png HTTP/1.1" 200 1980 wechselstrom-ac.de "-" "Mozilla/5.0 (Windows NT 10.0; WOW64; rv:51.0) Gecko/20100101 Firefox/51.0" "-"
93.199.44.123 - - [31/Jan/2017:08:59:08 +0100] "GET /assets/images/logo.png HTTP/1.1" 200 24550 wechselstrom-ac.de "http://wechselstrom-ac.de/" "Mozilla/5.0 (Windows NT 10.0; WOW64; rv:51.0) Gecko/20100101 Firefox/51.0" "-"
93.199.44.123 - - [31/Jan/2017:08:59:08 +0100] "GET /assets/fonts/fontawesome-webfontba72.woff?v=4.0.3 HTTP/1.1" 200 44432 wechselstrom-ac.de "http://wechselstrom-ac.de/assets/css/font-awesome.min.css?Tuesday%2031st%20of%20January%202017%2008:59:08%20AM" "Mozilla/5.0 (Windows NT 10.0; WOW64; rv:51.0) Gecko/20100101 Firefox/51.0" "-"
93.199.44.123 - - [31/Jan/2017:08:59:31 +0100] "GET /so-funktionierts HTTP/1.1" 200 33224 wechselstrom-ac.de "http://wechselstrom-ac.de/" "Mozilla/5.0 (Windows NT 10.0; WOW64; rv:51.0) Gecko/20100101 Firefox/51.0" "-"
93.199.44.123 - - [31/Jan/2017:08:59:31 +0100] "GET /assets/css/style.css?Tuesday%2031st%20of%20January%202017%2008:59:31%20AM HTTP/1.1" 200 10733 wechselstrom-ac.de "http://wechselstrom-ac.de/so-funktionierts" "Mozilla/5.0 (Windows NT 10.0; WOW64; rv:51.0) Gecko/20100101 Firefox/51.0" "-"
93.199.44.123 - - [31/Jan/2017:08:59:31 +0100] "GET /assets/css/font-awesome.min.css?Tuesday%2031st%20of%20January%202017%2008:59:31%20AM HTTP/1.1" 200 17803 wechselstrom-ac.de "http://wechselstrom-ac.de/so-funktionierts" "Mozilla/5.0 (Windows NT 10.0; WOW64; rv:51.0) Gecko/20100101 Firefox/51.0" "-"
93.199.44.123 - - [31/Jan/2017:08:59:31 +0100] "GET /assets/css/front-style.css?Tuesday%2031st%20of%20January%202017%2008:59:31%20AM HTTP/1.1" 200 3366 wechselstrom-ac.de "http://wechselstrom-ac.de/so-funktionierts" "Mozilla/5.0 (Windows NT 10.0; WOW64; rv:51.0) Gecko/20100101 Firefox/51.0" "-"
93.199.44.123 - - [31/Jan/2017:08:59:31 +0100] "GET /assets/images/sofunktionierts8x13.png HTTP/1.1" 200 125207 wechselstrom-ac.de "http://wechselstrom-ac.de/so-funktionierts" "Mozilla/5.0 (Windows NT 10.0; WOW64; rv:51.0) Gecko/20100101 Firefox/51.0" "-"
93.199.44.123 - - [31/Jan/2017:08:59:35 +0100] "GET /preis-beispiel HTTP/1.1" 200 37361 wechselstrom-ac.de "http://wechselstrom-ac.de/so-funktionierts" "Mozilla/5.0 (Windows NT 10.0; WOW64; rv:51.0) Gecko/20100101 Firefox/51.0" "-"
93.199.44.123 - - [31/Jan/2017:08:59:35 +0100] "GET /assets/css/style.css?Tuesday%2031st%20of%20January%202017%2008:59:35%20AM HTTP/1.1" 200 10733 wechselstrom-ac.de "http://wechselstrom-ac.de/preis-beispiel" "Mozilla/5.0 (Windows NT 10.0; WOW64; rv:51.0) Gecko/20100101 Firefox/51.0" "-"
93.199.44.123 - - [31/Jan/2017:08:59:35 +0100] "GET /assets/css/front-style.css?Tuesday%2031st%20of%20January%202017%2008:59:35%20AM HTTP/1.1" 200 3366 wechselstrom-ac.de "http://wechselstrom-ac.de/preis-beispiel" "Mozilla/5.0 (Windows NT 10.0; WOW64; rv:51.0) Gecko/20100101 Firefox/51.0" "-"
93.199.44.123 - - [31/Jan/2017:08:59:35 +0100] "GET /assets/css/font-awesome.min.css?Tuesday%2031st%20of%20January%202017%2008:59:35%20AM HTTP/1.1" 200 17803 wechselstrom-ac.de "http://wechselstrom-ac.de/preis-beispiel" "Mozilla/5.0 (Windows NT 10.0; WOW64; rv:51.0) Gecko/20100101 Firefox/51.0" "-"
93.199.44.123 - - [31/Jan/2017:08:59:37 +0100] "GET /fragen-antworten HTTP/1.1" 200 49761 wechselstrom-ac.de "http://wechselstrom-ac.de/preis-beispiel" "Mozilla/5.0 (Windows NT 10.0; WOW64; rv:51.0) Gecko/20100101 Firefox/51.0" "-"
93.199.44.123 - - [31/Jan/2017:08:59:37 +0100] "GET /assets/css/style.css?Tuesday%2031st%20of%20January%202017%2008:59:37%20AM HTTP/1.1" 200 10733 wechselstrom-ac.de "http://wechselstrom-ac.de/fragen-antworten" "Mozilla/5.0 (Windows NT 10.0; WOW64; rv:51.0) Gecko/20100101 Firefox/51.0" "-"
93.199.44.123 - - [31/Jan/2017:08:59:37 +0100] "GET /assets/css/font-awesome.min.css?Tuesday%2031st%20of%20January%202017%2008:59:37%20AM HTTP/1.1" 200 17803 wechselstrom-ac.de "http://wechselstrom-ac.de/fragen-antworten" "Mozilla/5.0 (Windows NT 10.0; WOW64; rv:51.0) Gecko/20100101 Firefox/51.0" "-"
93.199.44.123 - - [31/Jan/2017:08:59:37 +0100] "GET /assets/css/front-style.css?Tuesday%2031st%20of%20January%202017%2008:59:37%20AM HTTP/1.1" 200 3366 wechselstrom-ac.de "http://wechselstrom-ac.de/fragen-antworten" "Mozilla/5.0 (Windows NT 10.0; WOW64; rv:51.0) Gecko/20100101 Firefox/51.0" "-"
93.199.44.123 - - [31/Jan/2017:08:59:47 +0100] "GET /contact HTTP/1.1" 200 85886 wechselstrom-ac.de "http://wechselstrom-ac.de/fragen-antworten" "Mozilla/5.0 (Windows NT 10.0; WOW64; rv:51.0) Gecko/20100101 Firefox/51.0" "-"
93.199.44.123 - - [31/Jan/2017:08:59:47 +0100] "GET /assets/css/style.css?Tuesday%2031st%20of%20January%202017%2008:59:47%20AM HTTP/1.1" 200 10733 wechselstrom-ac.de "http://wechselstrom-ac.de/contact" "Mozilla/5.0 (Windows NT 10.0; WOW64; rv:51.0) Gecko/20100101 Firefox/51.0" "-"
93.199.44.123 - - [31/Jan/2017:08:59:47 +0100] "GET /assets/css/font-awesome.min.css?Tuesday%2031st%20of%20January%202017%2008:59:47%20AM HTTP/1.1" 200 17803 wechselstrom-ac.de "http://wechselstrom-ac.de/contact" "Mozilla/5.0 (Windows NT 10.0; WOW64; rv:51.0) Gecko/20100101 Firefox/51.0" "-"
93.199.44.123 - - [31/Jan/2017:08:59:47 +0100] "GET /assets/css/front-style.css?Tuesday%2031st%20of%20January%202017%2008:59:47%20AM HTTP/1.1" 200 3366 wechselstrom-ac.de "http://wechselstrom-ac.de/contact" "Mozilla/5.0 (Windows NT 10.0; WOW64; rv:51.0) Gecko/20100101 Firefox/51.0" "-"
93.199.44.123 - - [31/Jan/2017:08:59:47 +0100] "GET /assets/js/iban_code.js HTTP/1.1" 200 1738 wechselstrom-ac.de "http://wechselstrom-ac.de/contact" "Mozilla/5.0 (Windows NT 10.0; WOW64; rv:51.0) Gecko/20100101 Firefox/51.0" "-"
93.199.44.123 - - [31/Jan/2017:08:59:47 +0100] "GET /assets/js/iban.js HTTP/1.1" 200 53127 wechselstrom-ac.de "http://wechselstrom-ac.de/contact" "Mozilla/5.0 (Windows NT 10.0; WOW64; rv:51.0) Gecko/20100101 Firefox/51.0" "-"
93.199.44.123 - - [31/Jan/2017:08:59:47 +0100] "GET /okay.png HTTP/1.1" 404 1130 wechselstrom-ac.de "http://wechselstrom-ac.de/contact" "Mozilla/5.0 (Windows NT 10.0; WOW64; rv:51.0) Gecko/20100101 Firefox/51.0" "-"
93.199.44.123 - - [31/Jan/2017:08:59:47 +0100] "GET /error.png HTTP/1.1" 404 1130 wechselstrom-ac.de "http://wechselstrom-ac.de/contact" "Mozilla/5.0 (Windows NT 10.0; WOW64; rv:51.0) Gecko/20100101 Firefox/51.0" "-"
93.199.44.123 - - [31/Jan/2017:08:59:47 +0100] "GET /blank.png HTTP/1.1" 404 1130 wechselstrom-ac.de "http://wechselstrom-ac.de/contact" "Mozilla/5.0 (Windows NT 10.0; WOW64; rv:51.0) Gecko/20100101 Firefox/51.0" "-"
93.199.44.123 - - [31/Jan/2017:08:59:47 +0100] "GET /arrows_lr.png HTTP/1.1" 404 1130 wechselstrom-ac.de "http://wechselstrom-ac.de/contact" "Mozilla/5.0 (Windows NT 10.0; WOW64; rv:51.0) Gecko/20100101 Firefox/51.0" "-"
93.199.44.123 - - [31/Jan/2017:08:59:50 +0100] "GET /ueberuns HTTP/1.1" 200 34266 wechselstrom-ac.de "http://wechselstrom-ac.de/contact" "Mozilla/5.0 (Windows NT 10.0; WOW64; rv:51.0) Gecko/20100101 Firefox/51.0" "-"
93.199.44.123 - - [31/Jan/2017:08:59:50 +0100] "GET /assets/css/style.css?Tuesday%2031st%20of%20January%202017%2008:59:50%20AM HTTP/1.1" 200 10733 wechselstrom-ac.de "http://wechselstrom-ac.de/ueberuns" "Mozilla/5.0 (Windows NT 10.0; WOW64; rv:51.0) Gecko/20100101 Firefox/51.0" "-"
93.199.44.123 - - [31/Jan/2017:08:59:50 +0100] "GET /assets/css/font-awesome.min.css?Tuesday%2031st%20of%20January%202017%2008:59:50%20AM HTTP/1.1" 200 17803 wechselstrom-ac.de "http://wechselstrom-ac.de/ueberuns" "Mozilla/5.0 (Windows NT 10.0; WOW64; rv:51.0) Gecko/20100101 Firefox/51.0" "-"
93.199.44.123 - - [31/Jan/2017:08:59:50 +0100] "GET /assets/css/front-style.css?Tuesday%2031st%20of%20January%202017%2008:59:50%20AM HTTP/1.1" 200 3366 wechselstrom-ac.de "http://wechselstrom-ac.de/ueberuns" "Mozilla/5.0 (Windows NT 10.0; WOW64; rv:51.0) Gecko/20100101 Firefox/51.0" "-"
93.199.44.123 - - [31/Jan/2017:08:59:50 +0100] "GET /assets/images/BildTronnierVoss.png HTTP/1.1" 200 231565 wechselstrom-ac.de "http://wechselstrom-ac.de/ueberuns" "Mozilla/5.0 (Windows NT 10.0; WOW64; rv:51.0) Gecko/20100101 Firefox/51.0" "-"
93.199.44.123 - - [31/Jan/2017:09:00:05 +0100] "GET / HTTP/1.1" 200 43604 wechselstrom-ac.de "http://wechselstrom-ac.de/ueberuns" "Mozilla/5.0 (Windows NT 10.0; WOW64; rv:51.0) Gecko/20100101 Firefox/51.0" "-"
93.199.44.123 - - [31/Jan/2017:09:00:06 +0100] "GET /assets/css/style.css?Tuesday%2031st%20of%20January%202017%2009:00:05%20AM HTTP/1.1" 200 10733 wechselstrom-ac.de "http://wechselstrom-ac.de/" "Mozilla/5.0 (Windows NT 10.0; WOW64; rv:51.0) Gecko/20100101 Firefox/51.0" "-"
93.199.44.123 - - [31/Jan/2017:09:00:06 +0100] "GET /assets/css/font-awesome.min.css?Tuesday%2031st%20of%20January%202017%2009:00:05%20AM HTTP/1.1" 200 17803 wechselstrom-ac.de "http://wechselstrom-ac.de/" "Mozilla/5.0 (Windows NT 10.0; WOW64; rv:51.0) Gecko/20100101 Firefox/51.0" "-"
93.199.44.123 - - [31/Jan/2017:09:00:06 +0100] "GET /assets/css/front-style.css?Tuesday%2031st%20of%20January%202017%2009:00:05%20AM HTTP/1.1" 200 3366 wechselstrom-ac.de "http://wechselstrom-ac.de/" "Mozilla/5.0 (Windows NT 10.0; WOW64; rv:51.0) Gecko/20100101 Firefox/51.0" "-"
93.199.44.123 - - [31/Jan/2017:09:00:32 +0100] "GET /contact HTTP/1.1" 200 85886 wechselstrom-ac.de "http://wechselstrom-ac.de/" "Mozilla/5.0 (Windows NT 10.0; WOW64; rv:51.0) Gecko/20100101 Firefox/51.0" "-"
93.199.44.123 - - [31/Jan/2017:09:00:32 +0100] "GET /assets/css/style.css?Tuesday%2031st%20of%20January%202017%2009:00:32%20AM HTTP/1.1" 200 10733 wechselstrom-ac.de "http://wechselstrom-ac.de/contact" "Mozilla/5.0 (Windows NT 10.0; WOW64; rv:51.0) Gecko/20100101 Firefox/51.0" "-"
93.199.44.123 - - [31/Jan/2017:09:00:33 +0100] "GET /assets/css/font-awesome.min.css?Tuesday%2031st%20of%20January%202017%2009:00:32%20AM HTTP/1.1" 200 17803 wechselstrom-ac.de "http://wechselstrom-ac.de/contact" "Mozilla/5.0 (Windows NT 10.0; WOW64; rv:51.0) Gecko/20100101 Firefox/51.0" "-"
93.199.44.123 - - [31/Jan/2017:09:00:33 +0100] "GET /assets/css/front-style.css?Tuesday%2031st%20of%20January%202017%2009:00:32%20AM HTTP/1.1" 200 3366 wechselstrom-ac.de "http://wechselstrom-ac.de/contact" "Mozilla/5.0 (Windows NT 10.0; WOW64; rv:51.0) Gecko/20100101 Firefox/51.0" "-"
93.199.44.123 - - [31/Jan/2017:09:00:33 +0100] "GET /okay.png HTTP/1.1" 404 1130 wechselstrom-ac.de "http://wechselstrom-ac.de/contact" "Mozilla/5.0 (Windows NT 10.0; WOW64; rv:51.0) Gecko/20100101 Firefox/51.0" "-"
93.199.44.123 - - [31/Jan/2017:09:00:33 +0100] "GET /error.png HTTP/1.1" 404 1130 wechselstrom-ac.de "http://wechselstrom-ac.de/contact" "Mozilla/5.0 (Windows NT 10.0; WOW64; rv:51.0) Gecko/20100101 Firefox/51.0" "-"
93.199.44.123 - - [31/Jan/2017:09:00:33 +0100] "GET /blank.png HTTP/1.1" 404 1130 wechselstrom-ac.de "http://wechselstrom-ac.de/contact" "Mozilla/5.0 (Windows NT 10.0; WOW64; rv:51.0) Gecko/20100101 Firefox/51.0" "-"
93.199.44.123 - - [31/Jan/2017:09:00:33 +0100] "GET /arrows_lr.png HTTP/1.1" 404 1130 wechselstrom-ac.de "http://wechselstrom-ac.de/contact" "Mozilla/5.0 (Windows NT 10.0; WOW64; rv:51.0) Gecko/20100101 Firefox/51.0" "-"
93.199.44.123 - - [31/Jan/2017:09:00:34 +0100] "GET /ueberuns HTTP/1.1" 200 34266 wechselstrom-ac.de "http://wechselstrom-ac.de/contact" "Mozilla/5.0 (Windows NT 10.0; WOW64; rv:51.0) Gecko/20100101 Firefox/51.0" "-"
93.199.44.123 - - [31/Jan/2017:09:00:35 +0100] "GET /assets/css/style.css?Tuesday%2031st%20of%20January%202017%2009:00:35%20AM HTTP/1.1" 200 10733 wechselstrom-ac.de "http://wechselstrom-ac.de/ueberuns" "Mozilla/5.0 (Windows NT 10.0; WOW64; rv:51.0) Gecko/20100101 Firefox/51.0" "-"
93.199.44.123 - - [31/Jan/2017:09:00:35 +0100] "GET /assets/css/font-awesome.min.css?Tuesday%2031st%20of%20January%202017%2009:00:35%20AM HTTP/1.1" 200 17803 wechselstrom-ac.de "http://wechselstrom-ac.de/ueberuns" "Mozilla/5.0 (Windows NT 10.0; WOW64; rv:51.0) Gecko/20100101 Firefox/51.0" "-"
93.199.44.123 - - [31/Jan/2017:09:00:35 +0100] "GET /assets/css/front-style.css?Tuesday%2031st%20of%20January%202017%2009:00:35%20AM HTTP/1.1" 200 3366 wechselstrom-ac.de "http://wechselstrom-ac.de/ueberuns" "Mozilla/5.0 (Windows NT 10.0; WOW64; rv:51.0) Gecko/20100101 Firefox/51.0" "-"
93.199.44.123 - - [31/Jan/2017:09:00:36 +0100] "GET /fragen-antworten HTTP/1.1" 200 49761 wechselstrom-ac.de "http://wechselstrom-ac.de/ueberuns" "Mozilla/5.0 (Windows NT 10.0; WOW64; rv:51.0) Gecko/20100101 Firefox/51.0" "-"
93.199.44.123 - - [31/Jan/2017:09:00:37 +0100] "GET /assets/css/style.css?Tuesday%2031st%20of%20January%202017%2009:00:36%20AM HTTP/1.1" 200 10733 wechselstrom-ac.de "http://wechselstrom-ac.de/fragen-antworten" "Mozilla/5.0 (Windows NT 10.0; WOW64; rv:51.0) Gecko/20100101 Firefox/51.0" "-"
93.199.44.123 - - [31/Jan/2017:09:00:37 +0100] "GET /assets/css/font-awesome.min.css?Tuesday%2031st%20of%20January%202017%2009:00:36%20AM HTTP/1.1" 200 17803 wechselstrom-ac.de "http://wechselstrom-ac.de/fragen-antworten" "Mozilla/5.0 (Windows NT 10.0; WOW64; rv:51.0) Gecko/20100101 Firefox/51.0" "-"
93.199.44.123 - - [31/Jan/2017:09:00:37 +0100] "GET /assets/css/front-style.css?Tuesday%2031st%20of%20January%202017%2009:00:36%20AM HTTP/1.1" 200 3366 wechselstrom-ac.de "http://wechselstrom-ac.de/fragen-antworten" "Mozilla/5.0 (Windows NT 10.0; WOW64; rv:51.0) Gecko/20100101 Firefox/51.0" "-"
93.199.44.123 - - [31/Jan/2017:09:00:37 +0100] "GET /preis-beispiel HTTP/1.1" 200 37361 wechselstrom-ac.de "http://wechselstrom-ac.de/fragen-antworten" "Mozilla/5.0 (Windows NT 10.0; WOW64; rv:51.0) Gecko/20100101 Firefox/51.0" "-"
93.199.44.123 - - [31/Jan/2017:09:00:37 +0100] "GET /assets/css/style.css?Tuesday%2031st%20of%20January%202017%2009:00:37%20AM HTTP/1.1" 200 10733 wechselstrom-ac.de "http://wechselstrom-ac.de/preis-beispiel" "Mozilla/5.0 (Windows NT 10.0; WOW64; rv:51.0) Gecko/20100101 Firefox/51.0" "-"
93.199.44.123 - - [31/Jan/2017:09:00:37 +0100] "GET /assets/css/font-awesome.min.css?Tuesday%2031st%20of%20January%202017%2009:00:37%20AM HTTP/1.1" 200 17803 wechselstrom-ac.de "http://wechselstrom-ac.de/preis-beispiel" "Mozilla/5.0 (Windows NT 10.0; WOW64; rv:51.0) Gecko/20100101 Firefox/51.0" "-"
93.199.44.123 - - [31/Jan/2017:09:00:37 +0100] "GET /assets/css/front-style.css?Tuesday%2031st%20of%20January%202017%2009:00:37%20AM HTTP/1.1" 200 3366 wechselstrom-ac.de "http://wechselstrom-ac.de/preis-beispiel" "Mozilla/5.0 (Windows NT 10.0; WOW64; rv:51.0) Gecko/20100101 Firefox/51.0" "-"
93.199.44.123 - - [31/Jan/2017:09:01:09 +0100] "GET /so-funktionierts HTTP/1.1" 200 33224 wechselstrom-ac.de "http://wechselstrom-ac.de/preis-beispiel" "Mozilla/5.0 (Windows NT 10.0; WOW64; rv:51.0) Gecko/20100101 Firefox/51.0" "-"
93.199.44.123 - - [31/Jan/2017:09:01:09 +0100] "GET /assets/css/style.css?Tuesday%2031st%20of%20January%202017%2009:01:09%20AM HTTP/1.1" 200 10733 wechselstrom-ac.de "http://wechselstrom-ac.de/so-funktionierts" "Mozilla/5.0 (Windows NT 10.0; WOW64; rv:51.0) Gecko/20100101 Firefox/51.0" "-"
93.199.44.123 - - [31/Jan/2017:09:01:09 +0100] "GET /assets/css/font-awesome.min.css?Tuesday%2031st%20of%20January%202017%2009:01:09%20AM HTTP/1.1" 200 17803 wechselstrom-ac.de "http://wechselstrom-ac.de/so-funktionierts" "Mozilla/5.0 (Windows NT 10.0; WOW64; rv:51.0) Gecko/20100101 Firefox/51.0" "-"
93.199.44.123 - - [31/Jan/2017:09:01:09 +0100] "GET /assets/css/front-style.css?Tuesday%2031st%20of%20January%202017%2009:01:09%20AM HTTP/1.1" 200 3366 wechselstrom-ac.de "http://wechselstrom-ac.de/so-funktionierts" "Mozilla/5.0 (Windows NT 10.0; WOW64; rv:51.0) Gecko/20100101 Firefox/51.0" "-"
93.199.44.123 - - [31/Jan/2017:09:01:23 +0100] "GET /so-funktionierts HTTP/1.1" 200 33224 wechselstrom-ac.de "http://wechselstrom-ac.de/preis-beispiel" "Mozilla/5.0 (Windows NT 10.0; WOW64; rv:51.0) Gecko/20100101 Firefox/51.0" "-"
93.199.44.123 - - [31/Jan/2017:09:01:24 +0100] "GET /assets/css/style.css?Tuesday%2031st%20of%20January%202017%2009:01:23%20AM HTTP/1.1" 200 10733 wechselstrom-ac.de "http://wechselstrom-ac.de/so-funktionierts" "Mozilla/5.0 (Windows NT 10.0; WOW64; rv:51.0) Gecko/20100101 Firefox/51.0" "-"
93.199.44.123 - - [31/Jan/2017:09:01:24 +0100] "GET /assets/css/font-awesome.min.css?Tuesday%2031st%20of%20January%202017%2009:01:23%20AM HTTP/1.1" 200 17803 wechselstrom-ac.de "http://wechselstrom-ac.de/so-funktionierts" "Mozilla/5.0 (Windows NT 10.0; WOW64; rv:51.0) Gecko/20100101 Firefox/51.0" "-"
93.199.44.123 - - [31/Jan/2017:09:01:24 +0100] "GET /assets/css/front-style.css?Tuesday%2031st%20of%20January%202017%2009:01:23%20AM HTTP/1.1" 200 3366 wechselstrom-ac.de "http://wechselstrom-ac.de/so-funktionierts" "Mozilla/5.0 (Windows NT 10.0; WOW64; rv:51.0) Gecko/20100101 Firefox/51.0" "-"
